<svg xmlns="http://www.w3.org/2000/svg" width="66" height="42" viewBox="0 0 66 42">
    <g fill="none" fill-rule="evenodd" stroke-width="2">
        <path stroke="#FFF" d="M40.114 34h-16a4 4 0 0 1-4-4V12a4 4 0 0 1 4-4h16a4 4 0 0 1 4 4v18a4 4 0 0 1-4 4z"/>
        <path stroke="#FFF" stroke-linecap="round" stroke-linejoin="round" d="M40.114 8h-16l2-7h12zM38.114 41h-12l-2-7h16z"/>
        <path stroke="#FFF" d="M44.114 25v-8a3 3 0 0 1 3 3v2a3 3 0 0 1-3 3z"/>
        <path stroke="#83BCFF" stroke-linecap="round" stroke-linejoin="round" d="M23.531 21.833h3.714l2-7 4 12 3-8 2 3h3.286M11.114 27.613a11.066 11.066 0 0 1-1.774-6.028c0-2.222.651-4.292 1.774-6.029M8.117 30.61a15.219 15.219 0 0 1-2.947-9.025 15.22 15.22 0 0 1 2.947-9.026M5.14 33.587A19.38 19.38 0 0 1 1 21.585c0-4.527 1.546-8.692 4.138-11.998M54.114 27.613a11.074 11.074 0 0 0 1.775-6.028c0-2.222-.653-4.292-1.775-6.029M57.112 30.61a15.219 15.219 0 0 0 2.947-9.025 15.22 15.22 0 0 0-2.947-9.026M60.087 33.587a19.374 19.374 0 0 0 4.142-12.002c0-4.527-1.546-8.692-4.139-11.998"/>
    </g>
</svg>
