<svg xmlns="http://www.w3.org/2000/svg" xmlns:xlink="http://www.w3.org/1999/xlink" width="58" height="43" viewBox="0 0 58 43">
    <defs>
        <path id="a" d="M0 43h58V0H0z"/>
    </defs>
    <g fill="none" fill-rule="evenodd">
        <path stroke="#83BCFF" stroke-linecap="round" stroke-linejoin="round" stroke-width="2" d="M22 42h32a3 3 0 0 0 3-3V17a3 3 0 0 0-3-3H26M42 8h-8a2 2 0 0 0-2 2v4h12v-4a2 2 0 0 0-2-2zM42 24h15M26 24h8"/>
        <mask id="b" fill="#fff">
            <use xlink:href="#a"/>
        </mask>
        <path stroke="#83BCFF" stroke-linecap="round" stroke-linejoin="round" stroke-width="2" d="M34 26.5h8v-5h-8z" mask="url(#b)"/>
        <path stroke="#FFF" stroke-linecap="round" stroke-linejoin="round" stroke-width="2" d="M22 42H5a4 4 0 0 1-4-4V5a4 4 0 0 1 4-4h17a4 4 0 0 1 4 4v33a4 4 0 0 1-4 4zM1 36h25M1 7h25" mask="url(#b)"/>
        <path stroke="#83BCFF" stroke-linecap="round" stroke-linejoin="round" stroke-width="2" d="M7.5 30.166V23.5M11.5 30.166V25.5M15.5 30.166V18.5M19.5 30.166V12.5" mask="url(#b)"/>
    </g>
</svg>
