<svg xmlns="http://www.w3.org/2000/svg" width="106" height="106" viewBox="0 0 106 106">
    <g fill="none" fill-rule="evenodd" stroke-width="3">
        <path stroke="#2C6CAB" d="M31.5 95.14L10.287 73.925c-11.716-11.716-11.716-30.71 0-42.427L31.5 10.286c11.716-11.715 30.711-11.715 42.427 0L95.14 31.5c11.715 11.716 11.715 30.711 0 42.427L73.927 95.14c-11.716 11.716-30.71 11.716-42.427 0z"/>
        <path stroke="#2E2E2E" d="M78.219 69.769c0 8.284-6.716 15-15 15-8.284 0-15-6.716-15-15 0-8.284 6.716-15 15-15 8.284 0 15 6.716 15 15zM57.219 77.519a6 6 0 0 1 12 0"/>
        <path stroke="#2E2E2E" d="M67.219 66.769a4 4 0 1 1-8 0 4 4 0 0 1 8 0zM39.219 47.769c0 6.075-4.925 11-11 11s-11-4.925-11-11 4.925-11 11-11 11 4.925 11 11zM23.819 53.453a4.4 4.4 0 1 1 8.8 0"/>
        <path stroke="#2E2E2E" d="M31.152 45.569a2.934 2.934 0 1 1-5.867 0 2.934 2.934 0 0 1 5.867 0zM65.219 25.769a7 7 0 1 1-14 0 7 7 0 0 1 14 0zM37.08 41.27l15.5-11.366M50.245 62.244L37.41 53.809"/>
    </g>
</svg>
