<svg xmlns="http://www.w3.org/2000/svg" width="26" height="26" viewBox="0 0 26 26">
    <g fill="none" fill-rule="nonzero" stroke="#004F9E" stroke-width="2">
        <circle cx="13" cy="13" r="12"/>
        <path d="M13 5v9l6 2"/>
    </g>
</svg>
