<svg xmlns="http://www.w3.org/2000/svg" width="10" height="10" viewBox="0 0 10 10">
    <path fill="none" fill-rule="evenodd" stroke="#83BCFF" stroke-linecap="round" stroke-linejoin="round" stroke-width="2" d="M5.046 9.258l4.243-4.242L5.046.773"/>
</svg>
