<svg xmlns="http://www.w3.org/2000/svg" width="1007" height="769" viewBox="0 0 1007 769">
    <path fill="#F3F3F3" fill-rule="evenodd" d="M956.73 0a329.473 329.473 0 0 1 10.312 13.1C985.007 37.07 998.376 63.113 1007 90.82v158.36c-8.655 29.958-23.024 66.636-46.027 115.987l-80.338 172.355C827.89 650.678 796.988 686.217 755.59 717.268c-41.396 31.052-88.982 48.378-140.645 51.212-51.663 2.834-98.17-4.518-211.28-57.283l-172.284-80.371C118.273 578.061 82.749 547.146 51.71 505.731 20.672 464.318 3.352 416.713.52 365.03c-2.833-51.684 4.516-98.211 57.26-211.366L129.405 0H956.73z"/>
</svg>
