<svg xmlns="http://www.w3.org/2000/svg" width="86" height="82" viewBox="0 0 86 82">
    <g fill="none" fill-rule="evenodd" stroke-linecap="round" stroke-linejoin="round" stroke-width="2">
        <path stroke="#2E2E2E" d="M77.323 17.576L49.677 29.425M43.86 6.036l33.28 8.929M8.677 18.424L36.323 6.575M42.149 29.967l-33.29-8.931M8.677 64.424l27.646-11.848L40 51l3.862 1.036 33.278 8.929M42.14 75.965L9 67.073M77.323 63.576L49.677 75.424M81 58V20M46 73V35M40 9v42M5 24v38"/>
        <g stroke="#2C6CAB">
            <path d="M85 16a4 4 0 1 1-8 0 4 4 0 0 1 8 0zM85 62a4 4 0 1 1-8 0 4 4 0 0 1 8 0zM50 77a4 4 0 1 1-8 0 4 4 0 0 1 8 0zM9 66a4 4 0 1 1-8 0 4 4 0 0 1 8 0zM50 31a4 4 0 1 1-8 0 4 4 0 0 1 8 0zM44 5a4 4 0 1 1-8 0 4 4 0 0 1 8 0zM9 20a4 4 0 1 1-8 0 4 4 0 0 1 8 0z"/>
        </g>
    </g>
</svg>
