<svg xmlns="http://www.w3.org/2000/svg" xmlns:xlink="http://www.w3.org/1999/xlink" width="40" height="40" viewBox="0 0 40 40">
    <defs>
        <path id="a" d="M0 0h40v40H0z"/>
    </defs>
    <g fill="none" fill-rule="evenodd">
        <mask id="b" fill="#fff">
            <use xlink:href="#a"/>
        </mask>
        <path fill="#004F9E" d="M26.934 21.691c.73.713 1.5 1.383 2.155 2.167.289.35.563.708.773 1.112.297.575.027 1.208-.49 1.242h-3.204c-.826.068-1.485-.265-2.04-.83-.444-.452-.855-.933-1.282-1.4a2.994 2.994 0 0 0-.576-.513c-.438-.284-.817-.197-1.067.26-.255.463-.313.978-.338 1.495-.034.754-.262.952-1.02.988-1.62.076-3.158-.169-4.586-.987-1.26-.72-2.236-1.737-3.086-2.889-1.655-2.242-2.923-4.706-4.061-7.239-.257-.57-.07-.877.56-.888a86.384 86.384 0 0 1 3.138 0c.425.004.706.25.87.65.566 1.391 1.258 2.714 2.127 3.941.23.327.468.653.804.883.37.255.654.17.829-.244.11-.263.16-.545.184-.826.083-.968.094-1.933-.051-2.898-.09-.6-.428-.99-1.03-1.104-.305-.059-.26-.172-.11-.347.257-.302.499-.49.982-.49h3.622c.57.113.697.37.775.943l.003 4.024c-.006.221.11.881.512 1.028.32.105.53-.152.722-.354.867-.92 1.487-2.009 2.04-3.136.245-.495.456-1.009.66-1.523.153-.38.39-.569.82-.56l3.486.002c.103 0 .208.002.308.02.588.1.749.352.567.926-.286.9-.843 1.65-1.387 2.403-.581.805-1.203 1.581-1.78 2.391-.528.738-.486 1.111.17 1.753M20 .001C8.955 0 0 8.953 0 20c0 11.044 8.955 20 20 20 11.046 0 20-8.956 20-20C40 8.953 31.046 0 20 0" mask="url(#b)"/>
    </g>
</svg>
