<svg xmlns="http://www.w3.org/2000/svg" xmlns:xlink="http://www.w3.org/1999/xlink" width="40" height="40" viewBox="0 0 40 40">
    <defs>
        <path id="a" d="M0 0h40v40.001H0z"/>
    </defs>
    <g fill="none" fill-rule="evenodd">
        <mask id="b" fill="#fff">
            <use xlink:href="#a"/>
        </mask>
        <path fill="#004F9E" d="M15.484 26.158V13.845l11.758 6.177-11.758 6.136zM20 0C8.954 0 0 8.954 0 20s8.954 20.002 20 20.002S40 31.046 40 20C40 8.954 31.046 0 20 0z" mask="url(#b)"/>
    </g>
</svg>
